{
  "images" : [
    {
      "idiom" : "universal",
      "filename" : "powered-by-foursquare-grey_small.png",
      "scale" : "1x"
    },
    {
      "idiom" : "universal",
      "scale" : "2x"
    },
    {
      "idiom" : "universal",
      "scale" : "3x"
    }
  ],
  "info" : {
    "version" : 1,
    "author" : "xcode"
  },
  "properties" : {
    "compression-type" : "lossless",
    "template-rendering-intent" : "original",
    "preserves-vector-representation" : true
  }
}